{
    "key": "group_5a8f44101b440",
    "title": "Page - FAQ",
    "fields": [
        {
            "key": "field_5a8f45cdf5141",
            "label": "FAQs",
            "name": "faqs",
            "type": "text",
            "instructions": "",
            "required": 0,
            "conditional_logic": 0,
            "wrapper": {
                "width": "",
                "class": "",
                "id": ""
            },
            "default_value": "",
            "placeholder": "",
            "prepend": "",
            "append": "",
            "maxlength": ""
        }
    ],
    "location": [
        [
            {
                "param": "page",
                "operator": "==",
                "value": "199"
            }
        ]
    ],
    "menu_order": 0,
    "position": "acf_after_title",
    "style": "default",
    "label_placement": "top",
    "instruction_placement": "label",
    "hide_on_screen": [
        "the_content",
        "excerpt",
        "custom_fields",
        "featured_image"
    ],
    "active": 1,
    "description": "",
    "modified": 1535404001
}